…
It seems that I mainly write about the positive things that go in my life. There are a few entries where it dips down into the negatives. Does this accurately show how I really felt these days? To take a quick look, I am going to look at the top positive and negative days and see how well it has done.

# Best Days
jsDates %>%
  filter(!is.na(totalscore)) %>%
  group_by(Date) %>%
  summarise(total = sum(totalscore)) %>%
  ungroup() %>%
  arrange(desc(total))

## # A tibble: 602 x 2
##    Date       total
##    <date>     <dbl>
##  1 2019-02-16    94
##  2 2016-03-27    79
##  3 2016-08-17    55
##  4 2015-08-15    50
##  5 2017-11-07    46
##  6 2016-03-17    42
##  7 2017-01-12    41
##  8 2019-01-06    41
##  9 2017-03-11    37
## 10 2013-05-28    33
## # … with 592 more rows

# Worst Days
jsDates %>%
  filter(!is.na(totalscore)) %>%
  group_by(Date) %>%
  summarise(total = sum(totalscore)) %>%
  ungroup() %>%
  arrange(total)

## # A tibble: 602 x 2
##    Date       total
##    <date>     <dbl>
##  1 2014-10-03   -17
##  2 2014-06-28   -13
##  3 2014-07-01   -10
##  4 2015-11-01   -10
##  5 2014-08-29    -9
##  6 2014-10-05    -9
##  7 2014-04-29    -7
##  8 2014-07-29    -7
##  9 2017-05-30    -7
## 10 2014-11-12    -6
## # … with 592 more rows
…
